tb/wav.vcd
$date
	Mon Apr 28 10:45:16 2025
$end

$version
	Synopsys VCS version W-2024.09-SP1_Full64
$end

$timescale
	1ps
$end

$comment Csum: 1 148684cb9387134a $end


$scope module uvm_pkg $end
$var time 64 ! setting_offset $end
$var reg 32 " uvm_global_random_seed [31:0] $end
$var reg 32 # UVM_UNBOUNDED_CONNECTIONS [31:0] $end
$var reg 1 $ uvm_start_uvm_declarations $end
$var reg 32 % setting_verbosity [31:0] $end
$var reg 1 & is_verdi_set_verbosity_called $end
$var reg 1 ' is_uvm_factory_trace_checked $end
$var reg 1 ( is_verdi_trace_fac $end
$upscope $end


$scope module ptc_pkg $end
$upscope $end


$scope module hw_top $end
$var reg 32 ) clock_period [31:0] $end
$var reg 1 * run_clock $end
$var reg 1 + clock $end
$var reg 1 , reset $end

$scope module in0 $end
$var reg 1 - ptc_ecgt $end
$var reg 1 . ptc_capt $end
$var reg 1 / monitor_start $end
$var reg 1 0 clk $end
$var reg 1 1 rst $end
$var reg 1 2 ptc_pwm $end
$var reg 1 3 ptc_oen $end
$var reg 1 4 inta_o $end

$scope task reset_if $end
$upscope $end


$scope task trigger_monitor $end
$upscope $end

$upscope $end


$scope module clkgen $end
$var reg 1 + clock $end
$var wire 1 5 run_clock $end
$var reg 32 6 clock_period [31:0] $end
$upscope $end

$upscope $end


$scope module tb_top $end

$scope begin unnamed$$_vcs_2 $end
$upscope $end

$upscope $end

$enddefinitions $end

#0
$dumpvars
1'
0&
0(
1$
bxxxxxxxxxxxxxxxxxxxxxxxxxxxxxxxxxxxxxxxxxxxxxxxxxxxxxxxxxxxxxxxx !
b11111111111111111111111111111111 #
b00000000000000000000000000000000 %
b01000010000001111100110001000111 "
0+
0,
b00000000000000000000000000001010 6
15
x*
bxxxxxxxxxxxxxxxxxxxxxxxxxxxxxxxx )
00
01
0/
x.
x-
$end
#5000
1+
10
#10000
0+
00
#11000
1,
11
#15000
1+
10
#20000
0+
00
1.
#21000
0,
01
#25000
1+
10
0.
1.
#30000
0+
00
0.
#35000
1+
10
#40000
0+
00
#45000
1+
10
#50000
0+
00
1.
#55000
1+
10
0.
#60000
0+
00
#65000
1+
10
#70000
0+
00
#75000
1+
10
1.
#80000
0+
00
0.
#85000
1+
10
#90000
0+
00
#95000
1+
10
#100000
0+
00
1.
#105000
1+
10
0.
#110000
0+
00
#115000
1+
10
#120000
0+
00
#125000
1+
10
1.
#130000
0+
00
0.
#135000
1+
10
#140000
0+
00
#145000
1+
10
#150000
0+
00
1.
#155000
1+
10
0.
#160000
0+
00
#165000
1+
10
#170000
0+
00
#175000
1+
10
1.
#180000
0+
00
0.
#185000
1+
10
#190000
0+
00
#195000
1+
10
#200000
0+
00
1.
#205000
1+
10
0.
#210000
0+
00
#215000
1+
10
#220000
0+
00
#225000
1+
10
1.
#230000
0+
00
0.
#235000
1+
10
#240000
0+
00
#245000
1+
10
#250000
0+
00
1.
#255000
1+
10
0.
#260000
0+
00
#265000
1+
10
#270000
0+
00
#275000
1+
10
1.
#280000
0+
00
0.
#285000
1+
10
#290000
0+
00
#295000
1+
10
#300000
0+
00
1.
#305000
1+
10
0.
